[gd_scene load_steps=4 format=3 uid="uid://braocggsv4uql"]

[ext_resource type="Script" path="res://objects/chest/Chest.gd" id="1_hnoiw"]
[ext_resource type="Texture2D" uid="uid://bmdt41s8otnn8" path="res://assets/entity/chest.png" id="2_lwakx"]

[sub_resource type="RectangleShape2D" id="RectangleShape2D_1cino"]
size = Vector2(16, 16)

[node name="Chest" type="StaticBody2D" groups=["Store"]]
collision_layer = 2
collision_mask = 3
script = ExtResource("1_hnoiw")

[node name="Texture" type="Sprite2D" parent="."]
texture_filter = 1
texture = ExtResource("2_lwakx")

[node name="NavigationObstacle2D" type="NavigationObstacle2D" parent="."]
radius = 8.0

[node name="CollisionPolygon2D" type="CollisionShape2D" parent="."]
shape = SubResource("RectangleShape2D_1cino")
