[gd_scene load_steps=7 format=3 uid="uid://bwuhs2oovbu0r"]

[ext_resource type="Script" path="res://objects/fodder/Fodder.gd" id="1_adwbn"]
[ext_resource type="Resource" uid="uid://bdhn0mu7ak48a" path="res://objects/resources/types/fodder.tres" id="2_ba4vk"]
[ext_resource type="Resource" uid="uid://bopwyrry27w04" path="res://items/resources/stunner.tres" id="3_mvw03"]
[ext_resource type="Texture2D" uid="uid://leagpnhxbsgg" path="res://assets/resources/fodder.png" id="4_s30an"]
[ext_resource type="AudioStream" uid="uid://hwnn2agxm2bd" path="res://assets/sfx/sfx3.wav" id="5_1b56t"]

[sub_resource type="CircleShape2D" id="CircleShape2D_vc0mo"]
radius = 4.0

[node name="Fodder" type="StaticBody2D" node_paths=PackedStringArray("pickup_sfx")]
collision_layer = 4
script = ExtResource("1_adwbn")
starting_resources = 2
is_to_delete = true
node_type = ExtResource("2_ba4vk")
resource_item = ExtResource("3_mvw03")
pickup_sfx = NodePath("sfx3 splat")

[node name="Texture" type="Sprite2D" parent="."]
z_index = -1
texture_filter = 1
texture = ExtResource("4_s30an")

[node name="CollisionShape2D" type="CollisionShape2D" parent="."]
shape = SubResource("CircleShape2D_vc0mo")

[node name="NavigationObstacle2D" type="NavigationObstacle2D" parent="."]
radius = 5.0

[node name="sfx3 splat" type="AudioStreamPlayer" parent="."]
stream = ExtResource("5_1b56t")
