[gd_resource type="Resource" script_class="ResourceNodeType" load_steps=2 format=3 uid="uid://bdhn0mu7ak48a"]

[ext_resource type="Script" path="res://objects/resources/types/resource_node_type.gd" id="1_j6if3"]

[resource]
script = ExtResource("1_j6if3")
display_name = "Fodder"
