[gd_scene load_steps=16 format=3 uid="uid://cmlpjabtfqym5"]

[ext_resource type="Texture2D" uid="uid://bf2fpvhv22p0" path="res://assets/ui/menu/logo-crossed.png" id="1_1dl81"]
[ext_resource type="Script" path="res://levels/Menu.gd" id="1_t7rcu"]
[ext_resource type="PackedScene" uid="uid://b2enkcyvudrsr" path="res://characters/pig/pig.tscn" id="3_ptuod"]
[ext_resource type="PackedScene" uid="uid://dsl75e1tyceur" path="res://objects/resources/node/trough/trough.tscn" id="4_5w0lp"]
[ext_resource type="Theme" uid="uid://dwgmh0djmmcff" path="res://ui/theme.tres" id="4_amtaq"]
[ext_resource type="Shader" path="res://assets/shader/blur.gdshader" id="5_cjaca"]
[ext_resource type="TileSet" uid="uid://dh524uhytuyqr" path="res://assets/tileset/floor.tres" id="7_jwxqu"]
[ext_resource type="Script" path="res://ui/button/Play.gd" id="8_1x34x"]
[ext_resource type="Script" path="res://ui/button/Credits.gd" id="9_fdcqg"]
[ext_resource type="Script" path="res://ui/button/Quit.gd" id="10_0leyj"]
[ext_resource type="AudioStream" uid="uid://dofg5q3u5wktd" path="res://assets/sfx/sfx0.wav" id="11_62m71"]
[ext_resource type="AudioStream" uid="uid://8vshvxw1o0r6" path="res://assets/music/title.wav" id="11_a1pcn"]

[sub_resource type="NavigationPolygon" id="NavigationPolygon_2qg3c"]
vertices = PackedVector2Array(320, 0, 320, 184, 0, 184, 0, 0)
polygons = Array[PackedInt32Array]([PackedInt32Array(0, 1, 2, 3)])
outlines = Array[PackedVector2Array]([PackedVector2Array(0, 0, 0, 184, 320, 184, 320, 0)])

[sub_resource type="ShaderMaterial" id="ShaderMaterial_0wnug"]
shader = ExtResource("5_cjaca")
shader_parameter/blur = 2.5
shader_parameter/brightness = 1.0

[sub_resource type="StyleBoxEmpty" id="StyleBoxEmpty_mer2l"]

[node name="menu" type="Node"]
process_mode = 3
script = ExtResource("1_t7rcu")

[node name="Node2D" type="Node2D" parent="."]

[node name="NavigationRegion2D" type="NavigationRegion2D" parent="Node2D"]
navigation_polygon = SubResource("NavigationPolygon_2qg3c")

[node name="TileMap" type="TileMap" parent="Node2D"]
tile_set = ExtResource("7_jwxqu")
format = 2
layer_0/tile_data = PackedInt32Array(196608, 1, 0, 393216, 2, 0, 524288, 0, 0, 1, 0, 0, 262145, 0, 0, 327681, 1, 0, 458753, 0, 0, 589825, 1, 0, 655361, 1, 0, 2, 1, 0, 196610, 0, 0, 655362, 0, 0, 3, 0, 0, 65539, 0, 0, 262147, 1, 0, 720899, 0, 0, 4, 0, 0, 262148, 0, 0, 589828, 0, 0, 655364, 0, 0, 262149, 0, 0, 524293, 0, 0, 655365, 0, 0, 720901, 0, 0, 196614, 0, 0, 327686, 0, 0, 524294, 2, 0, 589830, 0, 0, 655366, 1, 0, 65543, 1, 0, 65544, 1, 0, 196616, 0, 0, 327688, 0, 0, 655368, 0, 0, 720904, 0, 0, 196617, 1, 0, 327689, 1, 0, 589833, 1, 0, 655369, 2, 0, 10, 1, 0, 458762, 0, 0, 655370, 1, 0, 720906, 1, 0, 655371, 0, 0, 720907, 0, 0, 65548, 1, 0, 131084, 0, 0, 196620, 0, 0, 589836, 0, 0, 655372, 0, 0, 196621, 1, 0, 393229, 1, 0, 524301, 1, 0, 655373, 0, 0, 720909, 0, 0, 196622, 0, 0, 524302, 0, 0, 131087, 0, 0, 393231, 0, 0, 262160, 0, 0, 524304, 1, 0, 17, 0, 0, 327697, 1, 0, 393233, 0, 0, 458769, 1, 0, 524305, 1, 0, 18, 1, 0, 131090, 0, 0, 196626, 2, 0, 262162, 0, 0, 327699, 1, 0, 393235, 0, 0, 655379, 0, 0, 20, 1, 0, 262164, 0, 0, 393236, 0, 0, 0, 0, 0, 65536, 0, 0, 131072, 0, 0, 262144, 0, 0, 327680, 0, 0, 458752, 0, 0, 589824, 0, 0, 655360, 0, 0, 720896, 0, 0, 65537, 0, 0, 131073, 0, 0, 196609, 0, 0, 393217, 0, 0, 524289, 0, 0, 720897, 0, 0, 65538, 0, 0, 131074, 1, 0, 262146, 0, 0, 327682, 0, 0, 393218, 0, 0, 458754, 1, 0, 524290, 1, 0, 589826, 0, 0, 720898, 0, 0, 131075, 0, 0, 196611, 0, 0, 327683, 0, 0, 393219, 0, 0, 458755, 1, 0, 524291, 0, 0, 589827, 0, 0, 655363, 2, 0, 65540, 0, 0, 131076, 1, 0, 196612, 0, 0, 327684, 1, 0, 393220, 0, 0, 458756, 0, 0, 524292, 1, 0, 720900, 0, 0, 5, 0, 0, 65541, 0, 0, 131077, 0, 0, 196613, 1, 0, 327685, 0, 0, 393221, 0, 0, 458757, 0, 0, 589829, 1, 0, 6, 1, 0, 65542, 0, 0, 131078, 0, 0, 262150, 0, 0, 393222, 0, 0, 458758, 0, 0, 720902, 0, 0, 7, 0, 0, 131079, 0, 0, 196615, 1, 0, 262151, 0, 0, 327687, 0, 0, 393223, 0, 0, 458759, 0, 0, 524295, 1, 0, 589831, 0, 0, 655367, 0, 0, 720903, 1, 0, 8, 0, 0, 131080, 2, 0, 262152, 1, 0, 393224, 0, 0, 458760, 0, 0, 524296, 1, 0, 589832, 0, 0, 9, 0, 0, 65545, 1, 0, 131081, 0, 0, 262153, 0, 0, 393225, 0, 0, 458761, 0, 0, 524297, 0, 0, 720905, 0, 0, 65546, 0, 0, 131082, 0, 0, 196618, 1, 0, 262154, 1, 0, 327690, 0, 0, 393226, 0, 0, 524298, 1, 0, 589834, 0, 0, 11, 0, 0, 65547, 0, 0, 131083, 2, 0, 196619, 0, 0, 262155, 0, 0, 327691, 0, 0, 393227, 0, 0, 458763, 1, 0, 524299, 1, 0, 589835, 0, 0, 12, 0, 0, 262156, 0, 0, 327692, 0, 0, 393228, 1, 0, 458764, 2, 0, 524300, 1, 0, 720908, 0, 0, 13, 0, 0, 65549, 1, 0, 131085, 0, 0, 262157, 1, 0, 327693, 0, 0, 458765, 0, 0, 589837, 0, 0, 14, 0, 0, 65550, 0, 0, 131086, 1, 0, 262158, 0, 0, 327694, 0, 0, 393230, 0, 0, 458766, 1, 0, 589838, 0, 0, 655374, 1, 0, 720910, 1, 0, 15, 1, 0, 65551, 0, 0, 196623, 0, 0, 262159, 0, 0, 327695, 0, 0, 458767, 1, 0, 524303, 0, 0, 589839, 0, 0, 655375, 0, 0, 720911, 0, 0, 16, 0, 0, 65552, 0, 0, 131088, 0, 0, 196624, 1, 0, 327696, 1, 0, 393232, 0, 0, 458768, 0, 0, 589840, 1, 0, 655376, 1, 0, 720912, 1, 0, 65553, 0, 0, 131089, 0, 0, 196625, 0, 0, 262161, 0, 0, 589841, 1, 0, 655377, 1, 0, 720913, 1, 0, 65554, 0, 0, 327698, 2, 0, 393234, 1, 0, 458770, 0, 0, 524306, 0, 0, 589842, 0, 0, 655378, 0, 0, 720914, 0, 0, 19, 0, 0, 65555, 0, 0, 131091, 0, 0, 196627, 0, 0, 262163, 1, 0, 458771, 0, 0, 524307, 0, 0, 589843, 1, 0, 720915, 0, 0, 65556, 1, 0, 131092, 1, 0, 196628, 0, 0, 327700, 0, 0, 458772, 0, 0, 524308, 1, 0, 589844, 0, 0, 655380, 0, 0, 720916, 0, 0, -196612, 1, 0, -131076, 0, 0, -65540, 0, 0, -4, 0, 0, 65532, 0, 0, 131068, 0, 0, 196604, 0, 0, 262140, 0, 0, 327676, 1, 0, 393212, 0, 0, 458748, 0, 0, 524284, 0, 0, 589820, 0, 0, 655356, 1, 0, 720892, 0, 0, 786428, 0, 0, 851964, 1, 0, 917500, 0, 0, 983036, 0, 0, 1048572, 0, 0, 1114108, 0, 0, 1179644, 0, 0, 1245180, 0, 0, 1310716, 0, 0, 1376252, 0, 0, -196611, 2, 0, -131075, 0, 0, -65539, 2, 0, -3, 0, 0, 65533, 0, 0, 131069, 1, 0, 196605, 0, 0, 262141, 0, 0, 327677, 0, 0, 393213, 0, 0, 458749, 1, 0, 524285, 0, 0, 589821, 0, 0, 655357, 1, 0, 720893, 2, 0, 786429, 0, 0, 851965, 0, 0, 917501, 0, 0, 983037, 0, 0, 1048573, 0, 0, 1114109, 0, 0, 1179645, 0, 0, 1245181, 0, 0, 1310717, 0, 0, 1376253, 0, 0, -196610, 0, 0, -131074, 1, 0, -65538, 0, 0, -2, 1, 0, 65534, 0, 0, 131070, 1, 0, 196606, 1, 0, 262142, 1, 0, 327678, 0, 0, 393214, 0, 0, 458750, 0, 0, 524286, 0, 0, 589822, 1, 0, 655358, 2, 0, 720894, 0, 0, 786430, 0, 0, 851966, 0, 0, 917502, 0, 0, 983038, 0, 0, 1048574, 2, 0, 1114110, 0, 0, 1179646, 0, 0, 1245182, 1, 0, 1310718, 1, 0, 1376254, 0, 0, -196609, 0, 0, -131073, 0, 0, -65537, 1, 0, -1, 0, 0, 65535, 0, 0, 131071, 0, 0, 196607, 0, 0, 262143, 0, 0, 327679, 0, 0, 393215, 0, 0, 458751, 1, 0, 524287, 0, 0, 589823, 0, 0, 655359, 1, 0, 720895, 1, 0, 786431, 2, 0, 851967, 2, 0, 917503, 0, 0, 983039, 0, 0, 1048575, 1, 0, 1114111, 0, 0, 1179647, 1, 0, 1245183, 0, 0, 1310719, 1, 0, 1376255, 0, 0, -262144, 0, 0, -196608, 0, 0, -131072, 0, 0, -65536, 1, 0, 786432, 0, 0, 851968, 0, 0, 917504, 0, 0, 983040, 1, 0, 1048576, 1, 0, 1114112, 0, 0, 1179648, 0, 0, 1245184, 0, 0, 1310720, 0, 0, -262143, 0, 0, -196607, 0, 0, -131071, 1, 0, -65535, 1, 0, 786433, 1, 0, 851969, 0, 0, 917505, 1, 0, 983041, 0, 0, 1048577, 1, 0, 1114113, 1, 0, 1179649, 1, 0, 1245185, 0, 0, 1310721, 1, 0, -262142, 2, 0, -196606, 0, 0, -131070, 0, 0, -65534, 1, 0, 786434, 0, 0, 851970, 0, 0, 917506, 0, 0, 983042, 1, 0, 1048578, 0, 0, 1114114, 0, 0, 1179650, 0, 0, 1245186, 0, 0, 1310722, 1, 0, -262141, 0, 0, -196605, 0, 0, -131069, 0, 0, -65533, 1, 0, 786435, 0, 0, 851971, 0, 0, 917507, 0, 0, 983043, 1, 0, 1048579, 0, 0, 1114115, 0, 0, 1179651, 1, 0, 1245187, 1, 0, 1310723, 0, 0, -262140, 0, 0, -196604, 0, 0, -131068, 1, 0, -65532, 0, 0, 786436, 0, 0, 851972, 0, 0, 917508, 1, 0, 983044, 0, 0, 1048580, 1, 0, 1114116, 1, 0, 1179652, 0, 0, 1245188, 0, 0, 1310724, 0, 0, -262139, 0, 0, -196603, 0, 0, -131067, 1, 0, -65531, 0, 0, 786437, 0, 0, 851973, 0, 0, 917509, 2, 0, 983045, 0, 0, 1048581, 0, 0, 1114117, 0, 0, 1179653, 0, 0, 1245189, 0, 0, 1310725, 1, 0, -262138, 0, 0, -196602, 0, 0, -131066, 0, 0, -65530, 0, 0, 786438, 0, 0, 851974, 0, 0, 917510, 1, 0, 983046, 0, 0, 1048582, 0, 0, 1114118, 0, 0, 1179654, 0, 0, 1245190, 0, 0, 1310726, 0, 0, -262137, 0, 0, -196601, 1, 0, -131065, 0, 0, -65529, 0, 0, 786439, 0, 0, 851975, 1, 0, 917511, 0, 0, 983047, 1, 0, 1048583, 0, 0, 1114119, 0, 0, 1179655, 0, 0, 1245191, 0, 0, 1310727, 1, 0, -262136, 1, 0, -196600, 0, 0, -131064, 0, 0, -65528, 1, 0, 786440, 2, 0, 851976, 0, 0, 917512, 0, 0, 983048, 1, 0, 1048584, 1, 0, 1114120, 0, 0, 1179656, 0, 0, 1245192, 0, 0, 1310728, 0, 0, -262135, 1, 0, -196599, 0, 0, -131063, 1, 0, -65527, 0, 0, 786441, 0, 0, 851977, 0, 0, 917513, 0, 0, 983049, 0, 0, 1048585, 0, 0, 1114121, 0, 0, 1179657, 0, 0, 1245193, 0, 0, 1310729, 0, 0, -262134, 0, 0, -196598, 0, 0, -131062, 0, 0, -65526, 0, 0, 786442, 1, 0, 851978, 0, 0, 917514, 1, 0, 983050, 0, 0, 1048586, 1, 0, 1114122, 0, 0, 1179658, 1, 0, 1245194, 1, 0, 1310730, 1, 0, -262133, 0, 0, -196597, 0, 0, -131061, 0, 0, -65525, 0, 0, 786443, 0, 0, 851979, 0, 0, 917515, 1, 0, 983051, 1, 0, 1048587, 1, 0, 1114123, 1, 0, 1179659, 0, 0, 1245195, 1, 0, 1310731, 0, 0, -262132, 1, 0, -196596, 0, 0, -131060, 0, 0, -65524, 0, 0, 786444, 0, 0, 851980, 0, 0, 917516, 0, 0, 983052, 0, 0, 1048588, 0, 0, 1114124, 0, 0, 1179660, 1, 0, 1245196, 0, 0, 1310732, 0, 0, -262131, 0, 0, -196595, 0, 0, -131059, 0, 0, -65523, 0, 0, 786445, 2, 0, 851981, 0, 0, 917517, 0, 0, 983053, 2, 0, 1048589, 0, 0, 1114125, 1, 0, 1179661, 1, 0, 1245197, 1, 0, 1310733, 0, 0, -262130, 0, 0, -196594, 2, 0, -131058, 0, 0, -65522, 0, 0, 786446, 1, 0, 851982, 2, 0, 917518, 0, 0, 983054, 1, 0, 1048590, 1, 0, 1114126, 0, 0, 1179662, 1, 0, 1245198, 0, 0, 1310734, 0, 0, -262129, 0, 0, -196593, 0, 0, -131057, 0, 0, -65521, 0, 0, 786447, 2, 0, 851983, 0, 0, 917519, 0, 0, 983055, 0, 0, 1048591, 0, 0, 1114127, 1, 0, 1179663, 0, 0, 1245199, 1, 0, 1310735, 1, 0, -262128, 1, 0, -196592, 0, 0, -131056, 1, 0, -65520, 0, 0, 786448, 0, 0, 851984, 0, 0, 917520, 1, 0, 983056, 0, 0, 1048592, 0, 0, 1114128, 1, 0, 1179664, 0, 0, 1245200, 1, 0, 1310736, 0, 0, -262127, 2, 0, -196591, 0, 0, -131055, 0, 0, -65519, 0, 0, 786449, 0, 0, 851985, 1, 0, 917521, 0, 0, 983057, 0, 0, 1048593, 1, 0, 1114129, 0, 0, 1179665, 2, 0, 1245201, 0, 0, 1310737, 0, 0, -262126, 0, 0, -196590, 0, 0, -131054, 1, 0, -65518, 2, 0, 786450, 0, 0, 851986, 1, 0, 917522, 0, 0, 983058, 0, 0, 1048594, 1, 0, 1114130, 1, 0, 1179666, 2, 0, 1245202, 0, 0, 1310738, 0, 0, -262125, 0, 0, -196589, 0, 0, -131053, 0, 0, -65517, 1, 0, 786451, 1, 0, 851987, 0, 0, 917523, 1, 0, 983059, 0, 0, 1048595, 0, 0, 1114131, 0, 0, 1179667, 0, 0, 1245203, 0, 0, 1310739, 2, 0, -262124, 0, 0, -196588, 0, 0, -131052, 1, 0, -65516, 1, 0, 786452, 0, 0, 851988, 0, 0, 917524, 0, 0, 983060, 0, 0, 1048596, 1, 0, 1114132, 0, 0, 1179668, 0, 0, 1245204, 0, 0, 1310740, 1, 0, -262123, 0, 0, -196587, 1, 0, -131051, 2, 0, -65515, 0, 0, 21, 1, 0, 65557, 0, 0, 131093, 0, 0, 196629, 0, 0, 262165, 0, 0, 327701, 0, 0, 393237, 1, 0, 458773, 1, 0, 524309, 0, 0, 589845, 1, 0, 655381, 0, 0, 720917, 0, 0, 786453, 1, 0, 851989, 1, 0, 917525, 0, 0, 983061, 0, 0, 1048597, 1, 0, 1114133, 1, 0, 1179669, 0, 0, 1245205, 0, 0, 1310741, 0, 0, -262122, 0, 0, -196586, 1, 0, -131050, 2, 0, -65514, 1, 0, 22, 1, 0, 65558, 1, 0, 131094, 1, 0, 196630, 1, 0, 262166, 0, 0, 327702, 0, 0, 393238, 0, 0, 458774, 0, 0, 524310, 0, 0, 589846, 0, 0, 655382, 0, 0, 720918, 0, 0, 786454, 0, 0, 851990, 0, 0, 917526, 1, 0, 983062, 1, 0, 1048598, 1, 0, 1114134, 1, 0, 1179670, 0, 0, 1245206, 0, 0, 1310742, 0, 0, -262121, 0, 0, -196585, 0, 0, -131049, 0, 0, -65513, 0, 0, 23, 0, 0, 65559, 0, 0, 131095, 0, 0, 196631, 0, 0, 262167, 1, 0, 327703, 0, 0, 393239, 0, 0, 458775, 0, 0, 524311, 0, 0, 589847, 0, 0, 655383, 0, 0, 720919, 0, 0, 786455, 1, 0, 851991, 1, 0, 917527, 0, 0, 983063, 0, 0, 1048599, 0, 0, 1114135, 1, 0, 1179671, 1, 0, 1245207, 0, 0, 1310743, 0, 0, -262120, 0, 0, -196584, 0, 0, -131048, 0, 0, -65512, 0, 0, 24, 0, 0, 65560, 0, 0, 131096, 1, 0, 196632, 0, 0, 262168, 0, 0, 327704, 0, 0, 393240, 1, 0, 458776, 0, 0, 524312, 0, 0, 589848, 0, 0, 655384, 0, 0, 720920, 2, 0, 786456, 0, 0, 851992, 1, 0, 917528, 2, 0, 983064, 0, 0, 1048600, 0, 0, 1114136, 1, 0, 1179672, 1, 0, 1245208, 1, 0, 1310744, 0, 0, -262119, 1, 0, -196583, 1, 0, -131047, 1, 0, -65511, 1, 0, 25, 0, 0, 65561, 1, 0, 131097, 0, 0, 196633, 1, 0, 262169, 1, 0, 327705, 2, 0, 393241, 1, 0, 458777, 0, 0, 524313, 0, 0, 589849, 1, 0, 655385, 1, 0, 720921, 0, 0, 786457, 0, 0, 851993, 0, 0, 917529, 0, 0, 983065, 1, 0, 1048601, 0, 0, 1114137, 1, 0, 1179673, 0, 0, 1245209, 0, 0, 1310745, 0, 0, -262118, 1, 0, -196582, 1, 0, -131046, 0, 0, -65510, 0, 0, 26, 0, 0, 65562, 1, 0, 131098, 0, 0, 196634, 0, 0, 262170, 0, 0, 327706, 0, 0, 393242, 1, 0, 458778, 0, 0, 524314, 1, 0, 589850, 0, 0, 655386, 0, 0, 720922, 0, 0, 786458, 0, 0, 851994, 1, 0, 917530, 0, 0, 983066, 0, 0, 1048602, 1, 0, 1114138, 0, 0, 1179674, 0, 0, 1245210, 0, 0, 1310746, 1, 0, -262117, 1, 0, -196581, 0, 0, -131045, 0, 0, -65509, 0, 0, 27, 0, 0, 65563, 0, 0, 131099, 1, 0, 196635, 0, 0, 262171, 0, 0, 327707, 0, 0, 393243, 0, 0, 458779, 1, 0, 524315, 0, 0, 589851, 1, 0, 655387, 0, 0, 720923, 1, 0, 786459, 0, 0, 851995, 0, 0, 917531, 0, 0, 983067, 0, 0, 1048603, 0, 0, 1114139, 1, 0, 1179675, 0, 0, 1245211, 0, 0, 1310747, 0, 0, -262116, 0, 0, -196580, 1, 0, -131044, 1, 0, -65508, 1, 0, 28, 0, 0, 65564, 0, 0, 131100, 0, 0, 196636, 1, 0, 262172, 1, 0, 327708, 0, 0, 393244, 0, 0, 458780, 0, 0, 524316, 1, 0, 589852, 1, 0, 655388, 0, 0, 720924, 1, 0, 786460, 0, 0, 851996, 1, 0, 917532, 0, 0, 983068, 0, 0, 1048604, 1, 0, 1114140, 0, 0, 1179676, 2, 0, 1245212, 0, 0, 1310748, 2, 0, -262115, 1, 0, -196579, 0, 0, -131043, 1, 0, -65507, 0, 0, 29, 1, 0, 65565, 0, 0, 131101, 0, 0, 196637, 0, 0, 262173, 1, 0, 327709, 0, 0, 393245, 0, 0, 458781, 0, 0, 524317, 1, 0, 589853, 0, 0, 655389, 1, 0, 720925, 1, 0, 786461, 1, 0, 851997, 0, 0, 917533, 0, 0, 983069, 1, 0, 1048605, 0, 0, 1114141, 0, 0, 1179677, 0, 0, 1245213, 1, 0, 1310749, 0, 0, -262114, 1, 0, -196578, 0, 0, -131042, 0, 0, -65506, 0, 0, 30, 0, 0, 65566, 0, 0, 131102, 0, 0, 196638, 0, 0, 262174, 0, 0, 327710, 1, 0, 393246, 0, 0, 458782, 0, 0, 524318, 1, 0, 589854, 1, 0, 655390, 1, 0, 720926, 1, 0, 786462, 2, 0, 851998, 1, 0, 917534, 0, 0, 983070, 0, 0, 1048606, 0, 0, 1114142, 0, 0, 1179678, 0, 0, 1245214, 2, 0, 1310750, 0, 0, -262113, 0, 0, -196577, 1, 0, -131041, 0, 0, -65505, 0, 0, 31, 0, 0, 65567, 0, 0, 131103, 0, 0, 196639, 0, 0, 262175, 1, 0, 327711, 1, 0, 393247, 0, 0, 458783, 0, 0, 524319, 0, 0, 589855, 0, 0, 655391, 0, 0, 720927, 0, 0, 786463, 2, 0, 851999, 0, 0, 917535, 1, 0, 983071, 2, 0, 1048607, 0, 0, 1114143, 0, 0, 1179679, 0, 0, 1245215, 0, 0, 1310751, 0, 0, -262112, 0, 0, -196576, 0, 0, -131040, 1, 0, -65504, 1, 0, 32, 2, 0, 65568, 0, 0, 131104, 0, 0, 196640, 1, 0, 262176, 1, 0, 327712, 1, 0, 393248, 2, 0, 458784, 1, 0, 524320, 1, 0, 589856, 0, 0, 655392, 0, 0, 720928, 2, 0, 786464, 0, 0, 852000, 1, 0, 917536, 0, 0, 983072, 0, 0, 1048608, 0, 0, 1114144, 1, 0, 1179680, 0, 0, 1245216, 0, 0, 1310752, 1, 0, -196617, 1, 0, -65545, 1, 0, 196599, 0, 0, 327671, 0, 0, 524279, 0, 0, 786423, 0, 0, 1376247, 0, 0, 327672, 0, 0, 458744, 0, 0, 524280, 1, 0, 1179640, 0, 0, 1245176, 1, 0, 65529, 0, 0, 131065, 0, 0, 196601, 0, 0, 262137, 0, 0, 327673, 0, 0, 524281, 0, 0, 786425, 0, 0, 1048569, 1, 0, 1310713, 0, 0, -131078, 0, 0, -6, 1, 0, 327674, 0, 0, 524282, 0, 0, 851962, 1, 0, 1376250, 0, 0, -131077, 0, 0, 524283, 0, 0, 589819, 0, 0, 655355, 2, 0, 720891, 0, 0, 851963, 2, 0, 1048571, 1, 0, 1179643, 1, 0, -196618, 0, 0, -131082, 1, 0, -65546, 2, 0, -10, 1, 0, 65526, 1, 0, 131062, 1, 0, 196598, 0, 0, 262134, 0, 0, 327670, 1, 0, 393206, 0, 0, 458742, 0, 0, 524278, 0, 0, 589814, 0, 0, 655350, 1, 0, 720886, 0, 0, 786422, 0, 0, 851958, 1, 0, 917494, 1, 0, 983030, 0, 0, 1048566, 1, 0, 1114102, 0, 0, 1179638, 1, 0, 1245174, 0, 0, 1310710, 0, 0, 1376246, 0, 0, -131081, 1, 0, -9, 1, 0, 65527, 1, 0, 131063, 0, 0, 262135, 1, 0, 393207, 1, 0, 458743, 0, 0, 589815, 1, 0, 655351, 0, 0, 720887, 1, 0, 851959, 0, 0, 917495, 1, 0, 983031, 0, 0, 1048567, 1, 0, 1114103, 0, 0, 1179639, 0, 0, 1245175, 1, 0, 1310711, 1, 0, -196616, 0, 0, -131080, 0, 0, -65544, 0, 0, -8, 0, 0, 65528, 1, 0, 131064, 0, 0, 196600, 1, 0, 262136, 0, 0, 393208, 1, 0, 589816, 1, 0, 655352, 0, 0, 720888, 0, 0, 786424, 0, 0, 851960, 0, 0, 917496, 0, 0, 983032, 0, 0, 1048568, 0, 0, 1114104, 0, 0, 1310712, 0, 0, 1376248, 1, 0, -196615, 0, 0, -131079, 0, 0, -65543, 0, 0, -7, 0, 0, 393209, 0, 0, 458745, 0, 0, 589817, 1, 0, 655353, 0, 0, 720889, 0, 0, 851961, 1, 0, 917497, 0, 0, 983033, 1, 0, 1114105, 0, 0, 1179641, 1, 0, 1245177, 0, 0, 1376249, 1, 0, -196614, 0, 0, -65542, 0, 0, 65530, 1, 0, 131066, 0, 0, 196602, 0, 0, 262138, 0, 0, 393210, 1, 0, 458746, 0, 0, 589818, 1, 0, 655354, 1, 0, 720890, 0, 0, 786426, 0, 0, 917498, 0, 0, 983034, 1, 0, 1048570, 0, 0, 1114106, 2, 0, 1179642, 0, 0, 1245178, 1, 0, 1310714, 1, 0, -196613, 0, 0, -65541, 0, 0, -5, 0, 0, 65531, 0, 0, 131067, 0, 0, 196603, 1, 0, 262139, 0, 0, 327675, 0, 0, 393211, 0, 0, 458747, 0, 0, 786427, 0, 0, 917499, 0, 0, 983035, 2, 0, 1114107, 0, 0, 1245179, 1, 0, 1310715, 0, 0, 1376251, 1, 0)

[node name="pig" parent="Node2D" instance=ExtResource("3_ptuod")]
position = Vector2(288, 144)
hunger = 999

[node name="pig2" parent="Node2D" instance=ExtResource("3_ptuod")]
position = Vector2(280, 72)
hunger = 999

[node name="pig3" parent="Node2D" instance=ExtResource("3_ptuod")]
position = Vector2(64, 72)
hunger = 999

[node name="Trough" parent="Node2D" instance=ExtResource("4_5w0lp")]
position = Vector2(160, 56)
starting_resources = 9999999999999

[node name="CanvasLayer" type="CanvasLayer" parent="."]

[node name="ColorRect" type="ColorRect" parent="CanvasLayer"]
material = SubResource("ShaderMaterial_0wnug")
anchors_preset = 15
anchor_right = 1.0
anchor_bottom = 1.0
grow_horizontal = 2
grow_vertical = 2

[node name="Control" type="Control" parent="CanvasLayer"]
layout_mode = 3
anchors_preset = 15
anchor_right = 1.0
anchor_bottom = 1.0
grow_horizontal = 2
grow_vertical = 2

[node name="CenterContainer" type="CenterContainer" parent="CanvasLayer/Control"]
layout_mode = 1
anchors_preset = 15
anchor_right = 1.0
anchor_bottom = 1.0
grow_horizontal = 2
grow_vertical = 2

[node name="PanelContainer" type="PanelContainer" parent="CanvasLayer/Control/CenterContainer"]
custom_minimum_size = Vector2(136, 64)
layout_mode = 2
theme_override_styles/panel = SubResource("StyleBoxEmpty_mer2l")

[node name="MarginContainer" type="MarginContainer" parent="CanvasLayer/Control/CenterContainer/PanelContainer"]
layout_mode = 2
theme_override_constants/margin_left = 4
theme_override_constants/margin_top = 4
theme_override_constants/margin_right = 4
theme_override_constants/margin_bottom = 4

[node name="VBoxContainer" type="VBoxContainer" parent="CanvasLayer/Control/CenterContainer/PanelContainer/MarginContainer"]
layout_mode = 2
theme_override_constants/separation = 4

[node name="TextureRect" type="TextureRect" parent="CanvasLayer/Control/CenterContainer/PanelContainer/MarginContainer/VBoxContainer"]
texture_filter = 1
layout_mode = 2
texture = ExtResource("1_1dl81")
expand_mode = 5

[node name="MarginContainer" type="MarginContainer" parent="CanvasLayer/Control/CenterContainer/PanelContainer/MarginContainer/VBoxContainer"]
layout_mode = 2
theme_override_constants/margin_left = 4
theme_override_constants/margin_right = 6

[node name="VBoxContainer" type="VBoxContainer" parent="CanvasLayer/Control/CenterContainer/PanelContainer/MarginContainer/VBoxContainer/MarginContainer"]
layout_mode = 2

[node name="PlayButton" type="Button" parent="CanvasLayer/Control/CenterContainer/PanelContainer/MarginContainer/VBoxContainer/MarginContainer/VBoxContainer"]
unique_name_in_owner = true
layout_mode = 2
theme = ExtResource("4_amtaq")
text = "Play"
script = ExtResource("8_1x34x")

[node name="CreditsButton" type="Button" parent="CanvasLayer/Control/CenterContainer/PanelContainer/MarginContainer/VBoxContainer/MarginContainer/VBoxContainer" node_paths=PackedStringArray("focused_sfx")]
layout_mode = 2
theme = ExtResource("4_amtaq")
text = "Credits"
script = ExtResource("9_fdcqg")
focused_sfx = NodePath("../../../../../../../../../sfx0")

[node name="QuitButton" type="Button" parent="CanvasLayer/Control/CenterContainer/PanelContainer/MarginContainer/VBoxContainer/MarginContainer/VBoxContainer" node_paths=PackedStringArray("focused_sfx")]
layout_mode = 2
theme = ExtResource("4_amtaq")
text = "Quit"
script = ExtResource("10_0leyj")
focused_sfx = NodePath("../../../../../../../../../sfx0")

[node name="music" type="AudioStreamPlayer" parent="."]
stream = ExtResource("11_a1pcn")
volume_db = -8.0
autoplay = true

[node name="sfx0" type="AudioStreamPlayer" parent="."]
stream = ExtResource("11_62m71")

[connection signal="focus_entered" from="CanvasLayer/Control/CenterContainer/PanelContainer/MarginContainer/VBoxContainer/MarginContainer/VBoxContainer/PlayButton" to="CanvasLayer/Control/CenterContainer/PanelContainer/MarginContainer/VBoxContainer/MarginContainer/VBoxContainer/PlayButton" method="_on_focus_entered"]
[connection signal="focus_entered" from="CanvasLayer/Control/CenterContainer/PanelContainer/MarginContainer/VBoxContainer/MarginContainer/VBoxContainer/CreditsButton" to="CanvasLayer/Control/CenterContainer/PanelContainer/MarginContainer/VBoxContainer/MarginContainer/VBoxContainer/CreditsButton" method="_on_focus_entered"]
[connection signal="focus_entered" from="CanvasLayer/Control/CenterContainer/PanelContainer/MarginContainer/VBoxContainer/MarginContainer/VBoxContainer/QuitButton" to="CanvasLayer/Control/CenterContainer/PanelContainer/MarginContainer/VBoxContainer/MarginContainer/VBoxContainer/QuitButton" method="_on_focus_entered"]
