[gd_resource type="Resource" script_class="ResourceItem" load_steps=3 format=3 uid="uid://br38dhthutqax"]

[ext_resource type="Script" path="res://items/resources/resource_item.gd" id="1_4ou4b"]
[ext_resource type="Texture2D" uid="uid://pkb1s3r1bey8" path="res://assets/ui/store/coins.png" id="2_fm7hk"]

[resource]
script = ExtResource("1_4ou4b")
name = "Gold"
description = "totot"
max_stack_count = 1
value = 1
texture = ExtResource("2_fm7hk")
default_properties = {}
