[gd_resource type="Resource" script_class="ResourceItem" load_steps=5 format=3 uid="uid://bopwyrry27w04"]

[ext_resource type="Script" path="res://items/resources/resource_item.gd" id="1_v0fc4"]
[ext_resource type="Texture2D" uid="uid://dq7uqtgm7tgg7" path="res://assets/ui/store/stunner.png" id="2_xn336"]
[ext_resource type="Texture2D" uid="uid://bu5gvkrngmtin" path="res://assets/ui/store/stunner-border.png" id="3_jqbgj"]
[ext_resource type="Texture2D" uid="uid://38jtmm2mspli" path="res://assets/ui/store/stunner-border-highlighted.png" id="4_2kfrl"]

[resource]
script = ExtResource("1_v0fc4")
name = "Stunner"
description = "Immobilizes your livestock for stress-free slaughtering"
max_stack_count = 1
value = 50
texture_store = ExtResource("2_xn336")
texture_store_border = ExtResource("3_jqbgj")
texture_store_border_highlighted = ExtResource("4_2kfrl")
default_properties = {}
